[
    {
        "type":"obstacle",
        "x":50,
        "y":50
    },{
        "type":"obstacle",
        "x":100,
        "y":50
    },{
        "type":"obstacle",
        "x":50,
        "y":100
    },{
        "type":"obstacle",
        "x":150,
        "y":150
    },{
        "type":"sample",
        "x":200,
        "y":150
    },{
        "type":"sample",
        "x":250,
        "y":150
    },{
        "type":"sample",
        "x":300,
        "y":150
    },{
        "type":"sample",
        "x":350,
        "y":150
    },{
        "type":"robot",
        "x":100,
        "y":300,
        "modules":4
    },{
        "type":"ship",
        "x":50,
        "y":300
    }
]
