[
    {
        "type":"sample",
        "x":300,
        "y":50
    },{
        "type":"sample",
        "x":350,
        "y":50
    },{
        "type":"sample",
        "x":250,
        "y":50
    },{
        "type":"sample",
        "x":250,
        "y":100
    },{
        "type":"obstacle",
        "x":50,
        "y":50
    },{
        "type":"sample",
        "x":350,
        "y":100
    },{
        "type":"sample",
        "x":300,
        "y":100
    },{
        "type":"robot",
        "x":100,
        "y":300,
        "modules":5
    },{
        "type":"robot",
        "x":100,
        "y":250,
        "modules":5
    },{
        "type":"ship",
        "x":50,
        "y":300
    }
]
